# Blender v2.76 (sub 0) OBJ File: 'spiral.blend'
# www.blender.com
mtllib spiral.mtl
o Plane
v -0.972963 0.000000 0.972963
v 0.972963 0.000000 0.972963
v -0.972963 0.000000 -0.972963
v 0.972963 0.000000 -0.972963
v -0.972963 0.000000 1.972963
v 0.972963 0.000000 1.972963
v 2.051638 0.000000 0.972963
v 2.051638 0.000000 -0.972963
v -1.998489 0.000000 0.972963
v -1.998489 0.000000 -0.972963
v -0.972963 0.000000 -1.992257
v 0.972963 0.000000 -1.992257
v -0.972963 0.000000 1.972963
v 0.972963 0.000000 1.972963
v -0.972963 0.000000 2.978034
v -1.883924 0.000000 1.700731
v -1.883924 0.000000 2.705802
v -2.266644 0.000000 2.319414
v -2.266644 0.000000 1.314343
v -2.673222 0.000000 1.970660
v -3.137563 0.000000 0.965589
v -2.468547 0.000000 -0.099382
v -3.186638 0.000000 -0.448137
v -2.314782 0.000000 -1.443097
v -3.032874 0.000000 -1.791852
v -0.905207 0.000000 -2.800251
v -0.966164 0.000000 -3.493785
v 1.178298 0.000000 -3.244701
v 2.374857 0.000000 -2.160467
v 2.598265 0.000000 -2.812727
v 3.025431 0.000000 -2.268986
v 2.900332 0.000000 0.220313
v 3.901124 0.000000 0.220313
v 1.578048 0.000000 2.881575
v 2.774750 0.000000 2.881575
v 0.215167 0.000000 3.462428
v 1.215960 0.000000 3.918658
v -0.673379 0.000000 4.215637
v 0.327413 0.000000 4.273356
v -2.365684 0.000000 3.232906
v -2.434804 0.000000 3.954488
v -3.336606 0.000000 2.061404
v -3.634969 0.000000 2.959219
v -3.882495 0.000000 0.322309
v -4.376567 0.000000 0.775062
v -3.291078 0.000000 -2.194659
v -4.124181 0.000000 -2.665947
v -2.113059 0.000000 -3.993556
v -2.946162 0.000000 -4.599234
v 1.567530 0.000000 -3.993556
v 1.186037 0.000000 -5.096385
v 3.656927 0.000000 -3.993556
v 2.679091 0.000000 -4.716962
v 3.656119 0.000000 -3.156712
v 4.645888 0.000000 -3.156712
v 4.881606 0.000000 0.208348
v 5.871375 0.000000 0.208348
v 3.679823 0.000000 3.554421
v 4.669592 0.000000 4.498612
v 2.390801 0.000000 4.516377
v 3.380570 0.000000 5.576855
v 0.943580 0.000000 6.404554
v -6.434438 0.000000 1.785352
v -2.672994 0.000000 5.235883
v -2.672994 0.000000 6.404554
v -6.434438 0.000000 2.954023
vt 0.802838 0.246371
vt 0.802838 0.089379
vt 0.930964 0.089379
vt 0.930964 0.246371
vt 0.736994 0.246371
vt 0.736994 0.089379
vt 0.802838 0.002355
vt 0.930964 0.002355
vt 0.930964 0.329108
vt 0.802838 0.329108
vt 0.998078 0.089379
vt 0.998078 0.246371
vt 0.000000 0.000000
vt 0.294563 0.544810
vt 0.408285 0.617130
vt 0.377800 0.689100
vt 0.469780 0.631492
vt 0.439295 0.703462
vt 0.503866 0.618047
vt 0.473381 0.690017
vt 0.565342 0.625441
vt 0.507720 0.680154
vt 0.558546 0.524318
vt 0.611090 0.526032
vt 0.590317 0.422383
vt 0.642861 0.424098
vt 0.549104 0.272815
vt 0.573702 0.225418
vt 0.338008 0.196725
vt 0.440822 0.163556
vt 0.303279 0.164776
vt 0.344735 0.141716
vt 0.235086 0.347677
vt 0.176599 0.310483
vt 0.231642 0.587385
vt 0.161706 0.542910
vt 0.293672 0.679630
vt 0.221347 0.675105
vt 0.322754 0.766588
vt 0.262516 0.733527
vt 0.451462 0.759111
vt 0.433615 0.813350
vt 0.543737 0.711307
vt 0.533942 0.786686
vt 0.628388 0.607063
vt 0.643530 0.657845
vt 0.670168 0.404850
vt 0.733151 0.402064
vt 0.655887 0.232255
vt 0.722945 0.219846
vt 0.440789 0.095467
vt 0.496534 0.030674
vt 0.318682 0.017815
vt 0.397770 0.002355
vt 0.293347 0.077769
vt 0.235504 0.040985
vt 0.119661 0.273187
vt 0.061818 0.236403
vt 0.088404 0.557454
vt 0.001922 0.588281
vt 0.134558 0.674243
vt 0.044549 0.713397
vt 0.161864 0.863236
vt 0.408668 0.913960
vt 0.373221 0.997645
vt 0.733151 0.806669
vt 0.697703 0.890355
vn 0.000000 1.000000 0.000000
vn 0.000000 0.000000 1.000000
g g_0
usemtl Material
s off
f 1/1/1 2/2/1 4/3/1 3/4/1
f 2/2/1 1/1/1 5/5/1 6/6/1
f 4/3/1 2/2/1 7/7/1 8/8/1
f 1/1/1 3/4/1 10/9/1 9/10/1
f 3/4/1 4/3/1 12/11/1 11/12/1
f 3/4/1 11/12/1 10/9/1
f 4/3/1 8/8/1 12/11/1
f 2/2/1 6/6/1 7/7/1
f 1/1/1 9/10/1 5/5/1
f 6/13/2 5/13/2 13/13/2 14/13/2
f 14/14/1 13/15/1 15/16/1
f 15/16/1 13/15/1 16/17/1 17/18/1
f 17/18/1 16/17/1 19/19/1 18/20/1
f 18/20/1 19/19/1 21/21/1 20/22/1
f 21/21/1 19/19/1 22/23/1 23/24/1
f 23/24/1 22/23/1 24/25/1 25/26/1
f 25/26/1 24/25/1 26/27/1 27/28/1
f 29/29/1 28/30/1 27/28/1 26/27/1
f 28/30/1 29/29/1 31/31/1 30/32/1
f 31/31/1 29/29/1 32/33/1 33/34/1
f 33/34/1 32/33/1 34/35/1 35/36/1
f 35/36/1 34/35/1 36/37/1 37/38/1
f 37/38/1 36/37/1 38/39/1 39/40/1
f 38/39/1 36/37/1 40/41/1 41/42/1
f 41/42/1 40/41/1 42/43/1 43/44/1
f 43/44/1 42/43/1 44/45/1 45/46/1
f 45/46/1 44/45/1 46/47/1 47/48/1
f 47/48/1 46/47/1 48/49/1 49/50/1
f 49/50/1 48/49/1 50/51/1 51/52/1
f 51/52/1 50/51/1 52/53/1 53/54/1
f 52/53/1 50/51/1 54/55/1 55/56/1
f 55/56/1 54/55/1 56/57/1 57/58/1
f 57/58/1 56/57/1 58/59/1 59/60/1
f 59/60/1 58/59/1 60/61/1 61/62/1
f 61/62/1 60/61/1 62/63/1
f 62/63/1 60/61/1 64/64/1 65/65/1
f 65/65/1 64/64/1 63/66/1 66/67/1
